(7810, 13)
(92842, 20)
(37206, 25)
(97537, 38)
(97538, 39)
(50353, 47)
(91109, 47)
(7305, 48)
(50352, 48)
(64041, 48)
(84807, 54)
(77495, 56)
(9845, 64)
(9844, 65)
(93583, 81)
(15760, 86)
(21098, 87)
(15759, 87)
(61841, 93)
(28266, 110)
(22491, 112)
(22492, 113)
(22493, 114)
(45848, 120)
(9301, 121)
(45847, 121)
(45846, 122)
(92679, 134)
(95436, 138)
(47657, 139)
(95435, 139)
(49163, 145)
(90091, 155)
(98545, 162)
(14668, 164)
(51020, 177)
(3060, 179)
(3059, 180)
(58101, 184)
(52244, 191)
(81740, 193)
(76645, 194)
(88274, 197)
(66263, 205)
(10515, 208)
(46325, 208)
(10514, 209)
(46324, 209)
(75742, 209)
(10513, 210)
(75741, 210)
(9993, 230)
(64549, 232)
(93060, 234)
(93061, 235)
(93062, 236)
(9421, 239)
(13472, 239)
(54253, 239)
(13471, 240)
(78404, 245)
(10089, 247)
(59430, 257)
(52347, 263)
(7010, 269)
(94771, 273)
(67492, 274)
(9228, 299)
(9227, 300)
(44563, 305)
(38917, 312)
(84520, 313)
(11101, 322)
(46392, 325)
(60341, 325)
(89601, 325)
(61557, 336)
(93406, 338)
(47494, 343)
(47493, 344)
(74748, 349)
(74747, 350)
(83323, 354)
(9422, 357)
(54254, 357)
(46611, 360)
(43783, 363)
(96779, 363)
(96778, 364)
(27052, 365)
(37889, 389)
(73465, 391)
(100530, 391)
(46930, 392)
(17401, 392)
(19300, 392)
(73464, 392)
(100529, 392)
(17400, 393)
(47259, 394)
(13177, 402)
(78168, 413)
(95662, 413)
(70084, 418)
(28180, 421)
(46178, 424)
(54644, 429)
(41991, 430)
(65417, 430)
(6906, 431)
(58714, 434)
(81036, 437)
(81035, 438)
(88626, 440)
(88627, 441)
(88628, 442)
(54373, 442)
(88629, 443)
(54372, 443)
(78170, 452)
(51915, 453)
(78171, 453)
(22686, 454)
(51916, 454)
(22687, 455)
(51917, 455)
(96985, 455)
(96984, 456)
(29714, 457)
(28503, 458)
(13404, 459)
(13405, 460)
(36571, 467)
(50483, 467)
(68276, 471)
(54584, 478)
(12163, 490)
(82185, 501)
(82186, 502)
(37359, 505)
(37360, 506)
(63821, 508)
(8187, 512)
(29646, 512)
(43442, 512)
(63375, 516)
(91338, 531)
(91339, 532)
(48445, 536)
(41870, 543)
(15331, 548)
(57130, 555)
(57129, 556)
(57128, 557)
(57127, 558)
(66649, 566)
(62126, 567)
(25731, 571)
(25732, 572)
(25733, 573)
(72769, 573)
(93062, 574)
(9421, 577)
(13472, 577)
(54253, 577)
(9420, 578)
(23816, 587)
(23815, 588)
(81824, 588)
(62893, 594)
(18388, 599)
(25394, 599)
(65895, 601)
(18474, 607)
(83521, 620)
(94820, 653)
(94821, 654)
(25201, 662)
(97085, 665)
(55620, 667)
(55621, 668)
(63014, 668)
(41920, 681)
(93466, 692)
(8874, 695)
(80153, 696)
(80154, 697)
(34229, 704)
(34228, 705)
(32153, 718)
(77961, 722)
(77960, 723)
(77959, 724)
(77978, 724)
(60677, 726)
(6145, 750)
(16066, 758)
(43330, 766)
(32526, 767)
(13766, 769)
(18798, 770)
(37665, 772)
(49240, 775)
(49241, 776)
(59502, 783)
(37102, 785)
(19464, 793)
(35496, 794)
(62904, 794)
(83439, 802)
(10325, 809)
(55330, 821)
(2795, 825)
(77303, 826)
(77302, 827)
(80757, 829)
(63203, 831)
(42421, 834)
(3879, 840)
(3878, 841)
(3877, 842)
(100262, 849)
(100263, 850)
(10646, 854)
(59583, 854)
(44478, 857)
(41873, 858)
(41872, 859)
(99460, 876)
(76707, 880)
(2381, 889)
(2380, 890)
(51279, 891)
(2379, 891)
(99560, 892)
(69979, 892)
(77959, 899)
(77978, 899)
(51698, 903)
(20488, 915)
(11566, 927)
(85303, 937)
(51552, 943)
(51553, 944)
(47369, 945)
(47368, 946)
(99938, 950)
(21058, 953)
(21057, 954)
(64802, 970)
(64801, 971)
(67292, 973)
(4637, 973)
(426, 1002)
(1883, 1009)
(77064, 1018)
(44201, 1019)
(61360, 1025)
(44474, 1026)
(43785, 1038)
(43784, 1039)
(43783, 1040)
(96779, 1040)
(85640, 1061)
(57788, 1063)
(94864, 1075)
(76048, 1076)
(76047, 1077)
(72159, 1091)
(44588, 1099)
(37645, 1107)
(59440, 1115)
(36456, 1139)
(26611, 1142)
(26610, 1143)
(26609, 1144)
(73981, 1146)
(73980, 1147)
(73979, 1148)
(73978, 1149)
(70762, 1152)
(70761, 1153)
(99140, 1154)
(96103, 1170)
(18399, 1192)
(35903, 1194)
(35904, 1195)
(35905, 1196)
(5208, 1199)
(86290, 1201)
(62168, 1207)
(80818, 1212)
(28189, 1222)
(28188, 1223)
(19289, 1224)
(28187, 1224)
(89867, 1229)
(26769, 1233)
(28479, 1237)
(14459, 1248)
(8186, 1260)
(98048, 1260)
(8187, 1261)
(29646, 1261)
(43442, 1261)
(11806, 1276)
(52475, 1281)
(55040, 1281)
(13071, 1318)
(159, 1318)
(33896, 1329)
(75438, 1338)
(9889, 1344)
(43561, 1349)
(49478, 1350)
(46138, 1354)
(46703, 1360)
(96509, 1364)
(6809, 1368)
(78755, 1368)
(58867, 1369)
(49763, 1369)
(58868, 1370)
(85571, 1373)
(96164, 1375)
(41016, 1376)
(41017, 1377)
(41018, 1378)
(27783, 1393)
(54360, 1395)
(54359, 1396)
(54358, 1397)
(93509, 1408)
(31053, 1414)
(36318, 1414)
(31052, 1415)
(36317, 1415)
(36316, 1416)
(97412, 1417)
(36315, 1417)
(97413, 1418)
(97414, 1419)
(94953, 1433)
(78133, 1444)
(9890, 1449)
(64346, 1449)
(91446, 1449)
(64345, 1450)
(3688, 1456)
(21301, 1457)
(3687, 1457)
(48127, 1459)
(59409, 1468)
(96658, 1478)
(96657, 1479)
(96656, 1480)
(94736, 1491)
(86133, 1499)
(30774, 1504)
(10353, 1511)
(10352, 1512)
(93656, 1512)
(35466, 1515)
(35467, 1516)
(87143, 1521)
(90256, 1531)
(20523, 1532)
(1850, 1535)
(33913, 1555)
(20576, 1563)
(42461, 1564)
(42460, 1565)
(42459, 1566)
(42458, 1567)
(10300, 1573)
(23038, 1573)
(10301, 1574)
(20136, 1574)
(10302, 1575)
(45149, 1583)
(91982, 1602)
(11418, 1604)
(51344, 1630)
(97534, 1633)
(42110, 1634)
(5598, 1635)
(7804, 1652)
(24322, 1655)
(24323, 1656)
(52447, 1656)
(61730, 1659)
(61729, 1660)
(61728, 1661)
(44635, 1671)
(60978, 1672)
(3105, 1681)
(3104, 1682)
(64076, 1686)
(64077, 1687)
(84114, 1690)
(33660, 1691)
(100588, 1700)
(100589, 1701)
(6222, 1713)
(60261, 1714)
(86602, 1716)
(86601, 1717)
(43257, 1725)
(7054, 1726)
(89588, 1739)
(20511, 1750)
(83359, 1755)
(85291, 1755)
(74815, 1764)
(10864, 1771)
(44295, 1778)
(98669, 1778)
(93208, 1789)
(93209, 1790)
(62816, 1794)
(38675, 1797)
(10889, 1803)
(67320, 1810)
(279, 1811)
(82498, 1814)
(2062, 1815)
(15749, 1826)
(95287, 1826)
(15750, 1827)
(58686, 1839)
(65901, 1842)
(65902, 1843)
(86989, 1844)
(73864, 1847)
(23578, 1848)
(9520, 1856)
(35614, 1857)
(35615, 1858)
(35616, 1859)
(42821, 1860)
(26771, 1868)
(59435, 1873)
(12629, 1873)
(12628, 1874)
(73319, 1876)
(73320, 1877)
(37816, 1878)
(37815, 1879)
(24442, 1887)
(58491, 1889)
(68792, 1897)
(62241, 1898)
(21183, 1899)
(51155, 1903)
(82856, 1907)
(43339, 1914)
(43340, 1915)
(15850, 1916)
(15851, 1917)
(43609, 1931)
(43610, 1932)
(82205, 1949)
(44124, 1951)
(21759, 1960)
(17400, 1963)
(17401, 1964)
(19300, 1964)
(73464, 1964)
(100529, 1964)
(46930, 1964)
(17402, 1965)
(19301, 1965)
(17403, 1966)
(19302, 1966)
(15935, 1968)
(13388, 1972)
(13389, 1973)
(55022, 1973)
(13390, 1974)
(13391, 1975)
(86306, 1976)
(86305, 1977)
(13931, 1978)
(13930, 1979)
(52255, 1988)
(52256, 1989)
(82908, 1989)
(34877, 1989)
(69486, 2007)
(76963, 2009)
(98508, 2018)
(74122, 2019)
(74123, 2020)
(50837, 2021)
(96892, 2021)
(38136, 2025)
(38135, 2026)
(35420, 2045)
(15041, 2083)
(9046, 2086)
(49027, 2091)
(62515, 2092)
(62514, 2093)
(42015, 2108)
(60437, 2112)
(60436, 2113)
(44698, 2117)
(64272, 2149)
(39632, 2150)
(10004, 2155)
(45996, 2155)
(45219, 2169)
(45218, 2170)
(71700, 2170)
(74330, 2170)
(7346, 2177)
(90117, 2179)
(90118, 2180)
(12408, 2195)
(13369, 2195)
(12407, 2196)
(39991, 2196)
(2908, 2203)
(8601, 2207)
(23757, 2213)
(2686, 2214)
(23758, 2214)
(66941, 2230)
(54659, 2232)
(99169, 2234)
(38192, 2237)
(61715, 2237)
(38193, 2238)
(67511, 2256)
(24808, 2260)
(60093, 2269)
(90528, 2269)
(18095, 2277)
(73463, 2278)
(17401, 2279)
(19300, 2279)
(73464, 2279)
(100529, 2279)
(46930, 2279)
(46929, 2280)
(64902, 2283)
(22829, 2285)
(45813, 2309)
(45814, 2310)
(45815, 2311)
(45816, 2312)
(45817, 2313)
(39749, 2326)
(39750, 2327)
(59568, 2330)
(74248, 2334)
(50741, 2338)
(53392, 2343)
(21143, 2359)
(73390, 2361)
(77859, 2374)
(50813, 2393)
(54177, 2412)
(54178, 2413)
(72914, 2426)
(38628, 2444)
(38627, 2445)
(78353, 2447)
(13976, 2451)
(59937, 2461)
(94881, 2464)
(94880, 2465)
(94879, 2466)
(63953, 2487)
(43618, 2492)
(43186, 2500)
(19912, 2507)
(56936, 2507)
(19913, 2508)
(56937, 2508)
(73354, 2520)
(41260, 2521)
(73353, 2521)
(95092, 2522)
(73352, 2522)
(73351, 2523)
(73350, 2524)
(85733, 2525)
(95251, 2530)
(95250, 2531)
(48838, 2535)
(48839, 2536)
(10781, 2536)
(61591, 2536)
(78661, 2536)
(61590, 2537)
(61589, 2538)
(68049, 2543)
(13993, 2554)
(52597, 2559)
(41538, 2575)
(85354, 2580)
(30434, 2582)
(74640, 2583)
(28396, 2585)
(43443, 2590)
(8187, 2591)
(29646, 2591)
(43442, 2591)
(29645, 2592)
(43441, 2592)
(82294, 2595)
(95994, 2595)
(95995, 2596)
(48896, 2598)
(46426, 2599)
(48897, 2599)
(56533, 2600)
(56532, 2601)
(79048, 2670)
(79049, 2671)
(36648, 2671)
(29550, 2675)
(29551, 2676)
(14656, 2680)
(13317, 2686)
(64354, 2686)
(64353, 2687)
(31955, 2688)
(22436, 2696)
(56405, 2696)
(50539, 2702)
(79079, 2714)
(76940, 2723)
(86151, 2724)
(86150, 2725)
(86149, 2726)
(86148, 2727)
(81452, 2728)
(38681, 2731)
(38680, 2732)
(6534, 2758)
(97130, 2780)
(99856, 2781)
(48672, 2785)
(49019, 2787)
(51431, 2790)
(72759, 2790)
(55214, 2791)
(55213, 2792)
(61926, 2798)
(53553, 2799)
(87091, 2806)
(21159, 2808)
(21158, 2809)
(21157, 2810)
(30112, 2815)
(683, 2817)
(307, 2831)
(65638, 2834)
(65637, 2835)
(42975, 2837)
(86235, 2841)
(26254, 2854)
(14242, 2860)
(62381, 2860)
(26316, 2863)
(100341, 2871)
(36690, 2884)
(57425, 2884)
(57426, 2885)
(51837, 2897)
(67334, 2915)
(67333, 2916)
(50099, 2931)
(84645, 2932)
(61299, 2933)
(77065, 2936)
(44200, 2937)
(14366, 2942)
(54164, 2952)
(44487, 2957)
(41499, 2957)
(774, 2959)
(57513, 2959)
(95636, 2959)
(18452, 2964)
(100271, 2965)
(100270, 2966)
(76431, 2967)
(87585, 2970)
(48438, 2980)
(53782, 2983)
(85219, 2984)
(27857, 2989)
(4393, 2989)
(27858, 2990)
(80303, 3009)
(16524, 3012)
(64826, 3013)
(52319, 3014)
(64825, 3014)
(78945, 3015)
(64824, 3015)
(64823, 3016)
(30666, 3024)
(10118, 3062)
(48215, 3063)
(10781, 3069)
(61591, 3069)
(78661, 3069)
(48839, 3069)
(48838, 3070)
(95250, 3074)
(52319, 3080)
(64825, 3080)
(78945, 3081)
(64824, 3081)
(64823, 3082)
(48568, 3095)
(7363, 3098)
(77729, 3106)
(77728, 3107)
(67073, 3108)
(5526, 3125)
(5527, 3126)
(5528, 3127)
(81672, 3148)
(81673, 3149)
(93364, 3155)
(7305, 3166)
(50352, 3166)
(64041, 3166)
(50351, 3167)
(82759, 3167)
(50350, 3168)
(70668, 3188)
(38866, 3195)
(21315, 3197)
(98954, 3197)
(98955, 3198)
(58174, 3203)
(96537, 3208)
(57187, 3229)
(37449, 3230)
(57188, 3230)
(14446, 3231)
(37450, 3231)
(57189, 3231)
(99796, 3231)
(14447, 3232)
(57190, 3232)
(57191, 3233)
(78904, 3239)
(35734, 3251)
(58939, 3254)
(20723, 3265)
(71701, 3265)
(45218, 3266)
(71700, 3266)
(74330, 3266)
(3944, 3278)
(3943, 3279)
(73270, 3281)
(73269, 3282)
(73268, 3283)
(73267, 3284)
(73266, 3285)
(87262, 3285)
(47326, 3286)
(73265, 3286)
(87261, 3286)
(67661, 3289)
(98328, 3294)
(19657, 3302)
(99794, 3307)
(99795, 3308)
(37451, 3308)
(99796, 3309)
(14446, 3309)
(37450, 3309)
(57189, 3309)
(85986, 3310)
(4672, 3327)
(13631, 3329)
(16298, 3330)
(2142, 3335)
(97427, 3345)
(1359, 3345)
(9810, 3355)
(9809, 3356)
(48802, 3359)
(99185, 3362)
(27908, 3363)
(99184, 3363)
(27909, 3364)
(99183, 3364)
(99330, 3394)
(99329, 3395)
(63776, 3396)
(7305, 3407)
(50352, 3407)
(64041, 3407)
(96488, 3409)
(49703, 3414)
(97787, 3416)
(85558, 3418)
(69482, 3429)
(1752, 3433)
(49118, 3440)
(49119, 3441)
(33643, 3442)
(33644, 3443)
(88387, 3451)
(68894, 3452)
(88386, 3452)
(46392, 3454)
(60341, 3454)
(89601, 3454)
(8992, 3457)
(60656, 3463)
(19338, 3466)
(19337, 3467)
(38631, 3468)
(38630, 3469)
(79918, 3475)
(79919, 3476)
(45744, 3478)
(77392, 3478)
(48648, 3489)
(97334, 3492)
(97943, 3498)
(63982, 3503)
(63983, 3504)
(43466, 3507)
(59912, 3514)
(62622, 3514)
(77136, 3514)
(85478, 3514)
(77135, 3515)
(85477, 3515)
(23046, 3519)
(89953, 3524)
(31489, 3531)
(97072, 3536)
(46392, 3562)
(60341, 3562)
(89601, 3562)
(75653, 3565)
(22970, 3569)
(22971, 3570)
(26657, 3574)
(48572, 3580)
(48571, 3581)
(50187, 3601)
(98922, 3603)
(89530, 3606)
(6376, 3607)
(42828, 3613)
(60041, 3615)
(17326, 3623)
(17325, 3624)
(17324, 3625)
(60723, 3626)
(51875, 3629)
(31675, 3642)
(86531, 3651)
(47445, 3655)
(47446, 3656)
(47447, 3657)
(78113, 3671)
(68569, 3684)
(90162, 3689)
(99796, 3690)
(14446, 3690)
(37450, 3690)
(57189, 3690)
(99797, 3691)
(14445, 3691)
(99798, 3692)
(96821, 3695)
(17552, 3705)
(15771, 3706)
(17553, 3706)
(15772, 3707)
(83599, 3707)
(56938, 3718)
(19913, 3719)
(56937, 3719)
(19912, 3720)
(56936, 3720)
(3591, 3722)
(77909, 3731)
(47325, 3735)
(47326, 3736)
(73265, 3736)
(87261, 3736)
(72269, 3737)
(4863, 3742)
(56786, 3743)
(71178, 3747)
(22268, 3750)
(23152, 3750)
(18961, 3750)
(23153, 3751)
(18960, 3751)
(18959, 3752)
(47244, 3753)
(18958, 3753)
(529, 3755)
(10782, 3755)
(78662, 3755)
(48839, 3756)
(10781, 3756)
(61591, 3756)
(78661, 3756)
(73593, 3762)
(16514, 3769)
(46275, 3769)
(46276, 3770)
(46277, 3771)
(68326, 3771)
(68327, 3772)
(99818, 3772)
(75950, 3788)
(96939, 3791)
(34206, 3792)
(34207, 3793)
(41265, 3799)
(100325, 3807)
(82374, 3810)
(78950, 3814)
(68403, 3815)
(39285, 3830)
(39284, 3831)
(39283, 3832)
(29378, 3843)
(29379, 3844)
(34511, 3853)
(51059, 3858)
(41627, 3870)
(41626, 3871)
(70453, 3873)
(886, 3874)
(70454, 3874)
(52576, 3877)
(56567, 3887)
(56566, 3888)
(56565, 3889)
(1785, 3891)
(66840, 3894)
(63406, 3896)
(63405, 3897)
(50521, 3899)
(77433, 3900)
(16513, 3913)
(16514, 3914)
(46275, 3914)
(46276, 3915)
(25061, 3924)
(25062, 3925)
(25063, 3926)
(95439, 3926)
(40509, 3930)
(40508, 3931)
(40507, 3932)
(13239, 3938)
(76886, 3938)
(9607, 3946)
(20685, 3951)
(20684, 3952)
(77839, 3960)
(94464, 3961)
(86917, 3965)
(54004, 3978)
(80401, 3981)
(36613, 3983)
(62263, 3999)
(49165, 4000)
(35284, 4002)
(48874, 4022)
(23989, 4028)
(92862, 4028)
(92863, 4029)
(86376, 4050)
(47326, 4053)
(73265, 4053)
(87261, 4053)
(72269, 4054)
(70916, 4073)
(27493, 4081)
(51541, 4093)
(17839, 4104)
(45264, 4105)
(17838, 4105)
(45265, 4106)
(59826, 4107)
(40989, 4125)
(91125, 4129)
(10981, 4134)
(44351, 4135)
(90893, 4150)
(90894, 4151)
(1218, 4153)
(41483, 4160)
(41484, 4161)
(53074, 4161)
(53075, 4162)
(2265, 4172)
(2266, 4173)
(96054, 4174)
(12474, 4181)
(12473, 4182)
(29263, 4183)
(26194, 4186)
(82996, 4201)
(82997, 4202)
(96994, 4207)
(34107, 4207)
(34106, 4208)
(83036, 4209)
(55112, 4210)
(22685, 4214)
(22686, 4215)
(51916, 4215)
(67414, 4218)
(67870, 4229)
(7654, 4231)
(41912, 4240)
(41913, 4241)
(21905, 4242)
(51590, 4246)
(51589, 4247)
(59912, 4253)
(62622, 4253)
(77136, 4253)
(85478, 4253)
(88122, 4259)
(88121, 4260)
(88120, 4261)
(88119, 4262)
(48566, 4265)
(91858, 4273)
(91857, 4274)
(55817, 4325)
(26066, 4337)
(75339, 4340)
(22952, 4354)
(56342, 4379)
(25663, 4386)
(25664, 4387)
(25665, 4388)
(91665, 4433)
(50433, 4437)
(50432, 4438)
(34990, 4440)
(34991, 4441)
(4471, 4448)
(17956, 4450)
(97065, 4450)
(97064, 4451)
(4980, 4453)
(20241, 4453)
(68166, 4462)
(20391, 4483)
(20390, 4484)
(40159, 4485)
(28925, 4497)
(62939, 4507)
(26453, 4508)
(69395, 4509)
(8299, 4514)
(15396, 4514)
(22230, 4514)
(75007, 4515)
(10352, 4519)
(93656, 4519)
(2733, 4522)
(2732, 4523)
(21985, 4526)
(34084, 4531)
(30098, 4536)
(4078, 4541)
(5385, 4541)
(5384, 4542)
(87933, 4543)
(78123, 4545)
(78124, 4546)
(78126, 4546)
(75716, 4548)
(75714, 4548)
(75717, 4549)
(196, 4550)
(75718, 4550)
(83100, 4550)
(197, 4551)
(82692, 4551)
(198, 4552)
(199, 4553)
(31487, 4566)
(86704, 4570)
(86705, 4571)
(97677, 4580)
(11934, 4585)
(23372, 4588)
(15240, 4590)
(58668, 4594)
(76476, 4594)
(58669, 4595)
(92472, 4595)
(74075, 4602)
(69271, 4607)
(76239, 4610)
(76240, 4611)
(76241, 4612)
(76242, 4613)
(70116, 4620)
(72136, 4628)
(72135, 4629)
(41408, 4638)
(39076, 4646)
(39077, 4647)
(18344, 4657)
(18345, 4658)
(68023, 4661)
(26703, 4680)
(59914, 4696)
(59913, 4697)
(62623, 4697)
(77137, 4697)
(59912, 4698)
(62622, 4698)
(77136, 4698)
(85478, 4698)
(62621, 4699)
(12788, 4701)
(63133, 4713)
(93761, 4740)
(89675, 4747)
(25883, 4756)
(9420, 4766)
(9421, 4767)
(13472, 4767)
(54253, 4767)
(93063, 4771)
(27957, 4773)
(27956, 4774)
(33986, 4786)
(91976, 4786)
(54081, 4797)
(98558, 4803)
(17167, 4805)
(9134, 4806)
(47329, 4814)
(18032, 4815)
(65669, 4819)
(58546, 4825)
(85360, 4826)
(85359, 4827)
(98989, 4836)
(57474, 4838)
(57473, 4839)
(57472, 4840)
(49867, 4861)
(31487, 4872)
(75469, 4873)
(74332, 4877)
(74331, 4878)
(45218, 4879)
(71700, 4879)
(74330, 4879)
(17630, 4890)
(76959, 4912)
(54730, 4914)
(52449, 4914)
(54731, 4915)
(24324, 4915)
(52448, 4915)
(24323, 4916)
(52447, 4916)
(21942, 4925)
(42453, 4925)
(45744, 4928)
(77392, 4928)
(45745, 4929)
(45746, 4930)
(12408, 4937)
(13369, 4937)
(51176, 4970)
(98578, 4993)
(56311, 5002)
(54902, 5012)
(5823, 5015)
(35629, 5016)
(9308, 5041)
(28213, 5043)
(10489, 5047)
(74160, 5052)
(100598, 5052)
(1981, 5055)
(1982, 5056)
(73163, 5069)
(96708, 5078)
(34151, 5083)
(34150, 5084)
(34149, 5085)
(37886, 5087)
(37885, 5088)
(67591, 5089)
(97967, 5092)
(91223, 5103)
(20102, 5125)
(88072, 5132)
(8919, 5134)
(9890, 5135)
(64346, 5135)
(91446, 5135)
(91445, 5136)
(91444, 5137)
(89310, 5152)
(36739, 5155)
(36738, 5156)
(58125, 5167)
(23134, 5172)
(2652, 5172)
(2651, 5173)
(2650, 5174)
(2649, 5175)
(94743, 5183)
(37348, 5189)
(87616, 5203)
(78599, 5207)
(20758, 5208)
(96810, 5211)
(5583, 5213)
(5582, 5214)
(20376, 5217)
(20377, 5218)
(20378, 5219)
(29386, 5226)
(29387, 5227)
(72700, 5232)
(54687, 5237)
(6552, 5238)
(23821, 5245)
(18903, 5249)
(61090, 5249)
(61091, 5250)
(61092, 5251)
(36445, 5260)
(49654, 5267)
(49653, 5268)
(49652, 5269)
(6573, 5290)
(30690, 5307)
(20389, 5308)
(17074, 5312)
(5918, 5334)
(24032, 5334)
(5917, 5335)
(24031, 5335)
(24030, 5336)
(6065, 5343)
(6064, 5344)
(5446, 5350)
(5447, 5351)
(26449, 5367)
(36005, 5386)
(34285, 5398)
(17652, 5399)
(69563, 5405)
(40222, 5407)
(51600, 5407)
(51599, 5408)
(51598, 5409)
(51597, 5410)
(68222, 5412)
(82813, 5415)
(72419, 5419)
(43516, 5436)
(55765, 5438)
(15144, 5441)
(22101, 5463)
(59691, 5470)
(41233, 5473)
(18118, 5478)
(51596, 5478)
(51597, 5479)
(51598, 5480)
(51599, 5481)
(68210, 5484)
(64733, 5485)
(24932, 5492)
(4180, 5495)
(72522, 5503)
(12996, 5534)
(98527, 5554)
(98526, 5555)
(98525, 5556)
(92874, 5565)
